{
        "countries": 
        [
            {
              "code": "US",
              "name": "United States"
            },
            {
              "code": "ESP",
              "name": "Spain"
            },
            {
              "code": "ENG",
              "name": "England"
            },
            {
              "code": "ITA",
              "name": "Italy"
            }
        ]
}
